{
  "LuaSnip": { "branch": "master", "commit": "33b06d72d220aa56a7ce80a0dd6f06c70cd82b9d" },
  "auto-session": { "branch": "main", "commit": "021b64ed7d4ac68a37be3ad28d8e1cba5bec582c" },
  "clangd_extensions.nvim": { "branch": "main", "commit": "8f7b72100883e0e34400d9518d40a03f21e4d0a6" },
  "cmp-buffer": { "branch": "main", "commit": "3022dbc9166796b644a841a02de8dd1cc1d311fa" },
  "cmp-nvim-lsp": { "branch": "main", "commit": "99290b3ec1322070bcfb9e846450a46f6efa50f0" },
  "cmp-path": { "branch": "main", "commit": "91ff86cd9c29299a64f968ebb45846c485725f23" },
  "crates.nvim": { "branch": "main", "commit": "1c924d5a9ea3496c4e1a02d0d51388ba809f8468" },
  "harpoon": { "branch": "master", "commit": "1bc17e3e42ea3c46b33c0bbad6a880792692a1b3" },
  "lazy.nvim": { "branch": "main", "commit": "7e6c863bc7563efbdd757a310d17ebc95166cef3" },
  "lspsaga.nvim": { "branch": "main", "commit": "5fce15331ac6c3a3ec3ac91ab0e85ed82f5cbba0" },
  "lualine.nvim": { "branch": "master", "commit": "2a5bae925481f999263d6f5ed8361baef8df4f83" },
  "nightfox.nvim": { "branch": "main", "commit": "595ffb8f291fc4a9bef3201a28b7c0379a41cdee" },
  "nvim-autopairs": { "branch": "master", "commit": "b464658e9b880f463b9f7e6ccddd93fb0013f559" },
  "nvim-cmp": { "branch": "main", "commit": "b555203ce4bd7ff6192e759af3362f9d217e8c89" },
  "nvim-lspconfig": { "branch": "master", "commit": "8b15a1a597a59f4f5306fad9adfe99454feab743" },
  "nvim-tree.lua": { "branch": "master", "commit": "68fc4c20f5803444277022c681785c5edd11916d" },
  "nvim-treesitter": { "branch": "master", "commit": "e947d35bbf919ea88a24c21cb8afa4621e3cf547" },
  "nvim-web-devicons": { "branch": "master", "commit": "4adeeaa7a32d46cf3b5833341358c797304f950a" },
  "onedark.nvim": { "branch": "master", "commit": "67a74c275d1116d575ab25485d1bfa6b2a9c38a6" },
  "plenary.nvim": { "branch": "master", "commit": "2d9b06177a975543726ce5c73fca176cedbffe9d" },
  "rust.vim": { "branch": "master", "commit": "889b9a7515db477f4cb6808bef1769e53493c578" },
  "srcery-vim": { "branch": "master", "commit": "fa2242a3dd81804468241c0a8ebb32266c33fa60" },
  "telescope-fzf-native.nvim": { "branch": "main", "commit": "dae2eac9d91464448b584c7949a31df8faefec56" },
  "telescope.nvim": { "branch": "master", "commit": "2eca9ba22002184ac05eddbe47a7fe2d5a384dfc" },
  "tokyonight.nvim": { "branch": "main", "commit": "45d22cf0e1b93476d3b6d362d720412b3d34465c" },
  "vim-enfocado": { "branch": "main", "commit": "2a8fffdff1a20473f0fbacef10f2fb356e039b31" },
  "vim-moonfly-colors": { "branch": "master", "commit": "b5d91ed970c037e849c60a05f800c7e1cd9b2952" },
  "vim-surround": { "branch": "master", "commit": "3d188ed2113431cf8dac77be61b842acb64433d9" },
  "vim-tmux-navigator": { "branch": "master", "commit": "d847ea942a5bb4d4fab6efebc9f30d787fd96e65" }
}
